Dashboard - Accidents de la Route
…
Importer et préparer les données

# A tibble: 55,302 × 15
   Accident_Id  jour mois     an hrmn    lum dep   com     agg   int   atm   col
         <dbl> <dbl> <chr> <dbl> <tim> <dbl> <chr> <chr> <dbl> <dbl> <dbl> <dbl>
 1     2.02e11    19 10     2022 16:15     1 26    26198     2     3     1     3
 2     2.02e11    20 10     2022 08:34     1 25    25204     2     3     1     3
 3     2.02e11    20 10     2022 17:15     1 22    22360     2     6     1     2
 4     2.02e11    20 10     2022 18:00     1 16    16102     2     3     8     6
 5     2.02e11    19 10     2022 11:45     1 13    13103     1     1     1     2
 6     2.02e11     6 10     2022 14:00     1 13    13056     2     2     1     3
 7     2.02e11    20 10     2022 21:00     5 13    13063     2     1     1     1
 8     2.02e11    15 10     2022 21:00     5 12    12145     2     2     1     3
 9     2.02e11    20 10     2022 09:43     1 10    10387     2     1     8     6
10     2.02e11    19 10     2022 12:30     1 10    10387     2     9     1    -1
# ℹ 55,292 more rows
# ℹ 3 more variables: adr <chr>, lat <dbl>, long <chr>

# A tibble: 126,662 × 16
    Num_Acc id_usager id_vehicule num_veh place  catu  grav  sexe an_nais trajet
      <dbl> <chr>     <chr>       <chr>   <dbl> <dbl> <dbl> <dbl>   <dbl>  <dbl>
 1  2.02e11 1 099 700 813 952     A01         1     1     3     1    2008      5
 2  2.02e11 1 099 701 813 953     B01         1     1     1     1    1948      5
 3  2.02e11 1 099 698 813 950     B01         1     1     4     1    1988      9
 4  2.02e11 1 099 699 813 951     A01         1     1     1     1    1970      4
 5  2.02e11 1 099 696 813 948     A01         1     1     1     1    2002      0
 6  2.02e11 1 099 697 813 949     B01         1     1     4     2    1987      9
 7  2.02e11 1 099 694 813 947     A01         1     1     1     2    2000      0
 8  2.02e11 1 099 695 813 947     A01        10     3     4     2    1967      5
 9  2.02e11 1 099 692 813 945     B01         1     1     1     2    1975      0
10  2.02e11 1 099 693 813 946     A01         1     1     4     2    1996      0
# ℹ 126,652 more rows
# ℹ 6 more variables: secu1 <dbl>, secu2 <dbl>, secu3 <dbl>, locp <dbl>,
#   actp <chr>, etatp <dbl>

    Expand

Préparer les données

    Expand

# A tibble: 126,662 × 3
   date       nombre_accidents  grav
   <date>                <int> <dbl>
 1 2022-01-01              265     4
 2 2022-01-01              265     1
 3 2022-01-01              265     1
 4 2022-01-01              265     4
 5 2022-01-01              265     4
 6 2022-01-01              265     4
 7 2022-01-01              265     4
 8 2022-01-01              265     1
 9 2022-01-01              265     1
10 2022-01-01              265     4
# ℹ 126,652 more rows
…
